<svg 
 xmlns="http://www.w3.org/2000/svg"
 width="28px" height="25px">
<path fill-rule="evenodd"  fill="rgb(202, 202, 202)"
 d="M-0.000,25.000 L-0.000,21.000 L28.000,21.000 L28.000,25.000 L-0.000,25.000 ZM-0.000,10.000 L28.000,10.000 L28.000,14.000 L-0.000,14.000 L-0.000,10.000 ZM-0.000,-0.000 L28.000,-0.000 L28.000,4.000 L-0.000,4.000 L-0.000,-0.000 Z"/>
</svg>