<?xml version="1.0" encoding="utf-8"?>
<!-- Generator: Adobe Illustrator 22.1.0, SVG Export Plug-In . SVG Version: 6.00 Build 0)  -->
<svg version="1.1" id="Слой_1" xmlns="http://www.w3.org/2000/svg" xmlns:xlink="http://www.w3.org/1999/xlink" x="0px" y="0px"
	 viewBox="0 0 37.6 17.6" width="37.6" height="17.6" style="enable-background:new 0 0 37.6 17.6;" xml:space="preserve">
<style type="text/css">
	.st0{fill:#FFFFFF;}
	.st1{clip-path:url(#SVGID_2_);fill:url(#SVGID_3_);}
	.st2{fill:#D24B43;}
</style>
<ellipse class="st0" cx="28.9" cy="8.9" rx="5.2" ry="5.6"/>
<g>
	<defs>
		<path id="SVGID_1_" d="M24.8,11.6c-1.6-1.6,2.2-7.5,4-7.5c1.8,0,5.6,6,4,7.5c-0.6,0.6-2.3,1-4,1C27.1,12.6,25.4,12.2,24.8,11.6
			 M20.1,8.8c0,4.8,3.9,8.8,8.8,8.8c4.8,0,8.8-3.9,8.8-8.8c0-4.8-3.9-8.8-8.8-8.8C24,0,20.1,3.9,20.1,8.8"/>
	</defs>
	<clipPath id="SVGID_2_">
		<use xlink:href="#SVGID_1_"  style="overflow:visible;"/>
	</clipPath>
	
		<linearGradient id="SVGID_3_" gradientUnits="userSpaceOnUse" x1="-24.4177" y1="574.6869" x2="-24.3301" y2="574.6869" gradientTransform="matrix(79.716 -46.2097 -46.2097 -79.716 28527.3496 44694.5156)">
		<stop  offset="0" style="stop-color:#8267A9"/>
		<stop  offset="1.440910e-02" style="stop-color:#8267A9"/>
		<stop  offset="0.295" style="stop-color:#7667A9"/>
		<stop  offset="0.8893" style="stop-color:#5B67AC"/>
		<stop  offset="1" style="stop-color:#5667AC"/>
	</linearGradient>
	<polygon class="st1" points="12.5,4.4 33.2,-7.6 45.2,13.1 24.5,25.1 	"/>
</g>
<g>
	<path class="st2" d="M16.9,12.4c0,2.9-2.3,5.2-5.2,5.2H5.2c-2.9,0-5.2-2.3-5.2-5.2V5.9C0,3,2.3,0.6,5.2,0.6h6.5
		c2.9,0,5.2,2.3,5.2,5.2V12.4z"/>
	<path id="XMLID_49_" class="st0" d="M8.7,10.7l-2.4,5.4H4.5l2.6-5.8C5.9,9.7,5.1,8.6,5.1,6.5c0-2.9,1.9-4.4,4.1-4.4h2.3v14H9.9
		v-5.4H8.7z M9.9,3.4H9.1c-1.2,0-2.4,0.8-2.4,3.1c0,2.3,1.1,3,2.4,3h0.8V3.4z"/>
</g>
</svg>
