<?xml version="1.0" encoding="utf-8"?>
<svg version="1.1" xmlns="http://www.w3.org/2000/svg" xmlns:xlink="http://www.w3.org/1999/xlink" width="451" height="451" x="0px" y="0px" viewBox="0 0 451 451" style="enable-background:new 0 0 451 451;" xml:space="preserve">
	<path fill="#3b4858" d="M185.7,0c-26.5,0-50,26.7-53.1,53.1l-9.1,79.6H79.6c-13.3,0-26.5,13.3-26.5,26.5L26.5,424.5c0,13.3,13.3,26.5,26.5,26.5h344.9c13.3,0,26.5-13.3,26.5-26.5l-26.5-265.3c0-13.3-13.3-26.5-26.5-26.5h-43.9l-9.1-79.6C315.3,26.7,291.8,0,265.3,0H185.7z M185.7,26.5h79.6c13.3,0,25,13.4,26.5,26.5l9.1,79.6H150.1l9.1-79.6C160.7,39.9,172.4,26.5,185.7,26.5z"/>
</svg>