<?xml version="1.0" encoding="utf-8"?>
<!-- Generator: Adobe Illustrator 22.1.0, SVG Export Plug-In . SVG Version: 6.00 Build 0)  -->
<svg version="1.1" id="Слой_1" xmlns="http://www.w3.org/2000/svg" xmlns:xlink="http://www.w3.org/1999/xlink" x="0px" y="0px"
	 viewBox="0 0 143.2 101.2" width="143.2" height="101.2" style="enable-background:new 0 0 143.2 101.2;" xml:space="preserve">
<style type="text/css">
	.st0{fill:#959BA0;}
	.st1{fill:#C4C7CB;}
	.st2{fill-rule:evenodd;clip-rule:evenodd;fill:#363431;}
	.st3{fill:#363431;}
	.st4{fill:#FFFFFF;}
</style>
<path class="st0" d="M133.3,98.4c0,1.6-1.3,2.8-2.8,2.8H40.2c-1.6,0-2.8-1.3-2.8-2.8V69.3c0-1.6,1.3-2.8,2.8-2.8h90.3
	c1.6,0,2.8,1.3,2.8,2.8V98.4z"/>
<path class="st1" d="M34.9,98.4c0,1.6-1.3,2.8-2.8,2.8H3c-1.6,0-2.8-1.3-2.8-2.8V69.3c0-1.6,1.3-2.8,2.8-2.8h29.1
	c1.6,0,2.8,1.3,2.8,2.8V98.4z"/>
<g>
	<g>
		<path class="st2" d="M40,31.1c-0.9-1.2-1.1-2.6-1.1-4V0.8h-3.3v26c0,1.6,0.3,3.2,0.9,4.4c0.6,1.5,1.9,2.7,3.3,3.4
			c1.5,0.6,3.1,0.8,4.7,0.8h6.9V33h-7.2C42.4,33,41.1,32.5,40,31.1z"/>
		<path class="st2" d="M22.7,0.8l-16.1,0C2.7,0.7,0.2,2.5,0.2,6.1l0,20.7c0,1.6,0.3,3.2,0.9,4.4C1.7,32.7,3,34,4.4,34.6
			c1.5,0.6,3.1,0.8,4.7,0.8h22.5V33H8.8c-1.7,0-3.1-0.5-4.2-1.9c-0.9-1.2-1.1-2.6-1.1-4v-4.5l21.1-6c3.6-1,6.6-2.7,7.2-6.2
			c0.2-1.3,0.2-2.6,0-3.9C31.1,2.4,26.9,0.8,22.7,0.8L22.7,0.8z M28.4,10.2L28.4,10.2c-0.3,2.1-2.1,3.2-4.2,3.8L3.5,19.7l0-14.2
			c0-1.5,1.6-2.3,3-2.3l16.1,0c2.8,0,5.2,1.2,5.7,3.5C28.5,7.7,28.5,9.2,28.4,10.2z"/>
		<path class="st2" d="M118.8,16.6c3.6-1,6.6-2.7,7.2-6.2c0.2-1.3,0.2-2.6,0-3.9c-0.7-4.2-4.9-5.7-9.1-5.7h-14.9
			c-3.9-0.1-6.4,1.7-6.4,5.3c0,9.8,0,19.5,0,29.3h3.3c0-10,0-19.9,0-29.9c0-1.5,1.6-2.3,3-2.3l14.9,0c2.8,0,5.2,1.2,5.7,3.5
			c0.2,1,0.2,2.5,0,3.5c-0.3,2.1-2.1,3.2-4.2,3.8l-7.8,2.2c-0.6,0.1-1.3,0.8-1.3,1.6c0,0.5,0.2,0.9,0.5,1.2l15.1,16.3h4.2L113,18.3
			L118.8,16.6z"/>
		<rect x="130" y="0.8" class="st2" width="3.3" height="34.6"/>
		<path class="st2" d="M77,2.3c-0.4-0.5-0.9-1-1.5-1.3c-0.6-0.4-1.3-0.5-2.1-0.5c-0.9,0-1.6,0.2-2.2,0.5c-0.6,0.3-1.1,0.8-1.5,1.3
			c-0.4,0.5-0.8,1.2-1.1,1.8L52.3,35.4h3.5c2-3.9,3.4-6.6,4.5-8.7L83,20.2c1.9,3.6,3.1,6,7.8,15.1h3.5L78.1,4
			C77.8,3.4,77.4,2.8,77,2.3L77,2.3z M61.9,23.6L61.9,23.6c2.2-4.3,3.7-7.1,9.7-18.7C71.7,4.6,71.8,4.3,72,4
			c0.2-0.3,0.3-0.6,0.6-0.8C72.8,3,73,2.9,73.3,2.9c0.3,0,0.6,0.1,0.8,0.4c0.2,0.2,0.4,0.5,0.5,0.8c0.2,0.3,0.3,0.6,0.4,0.8
			c3.4,6.6,5.3,10.3,6.7,13L61.9,23.6z"/>
		<g>
			<path class="st3" d="M140,6.4c-1.7,0-3.2-1.2-3.2-3.2c0-2,1.5-3.2,3.2-3.2c1.7,0,3.2,1.2,3.2,3.2C143.2,5.2,141.7,6.4,140,6.4z
				 M140,0.7c-1.3,0-2.3,1-2.3,2.4s1,2.5,2.3,2.5c1.2,0,2.3-1,2.3-2.5S141.3,0.7,140,0.7z M139.5,4.9h-0.7V1.5h1.3
				c0.9,0,1.4,0.3,1.4,1c0,0.6-0.4,0.9-0.8,0.9l0.9,1.5h-0.9l-0.8-1.4h-0.3V4.9z M139.5,2.9h0.6c0.3,0,0.5-0.1,0.5-0.4
				c0-0.3-0.4-0.4-0.7-0.4h-0.5V2.9z"/>
		</g>
	</g>
	<g>
		<path class="st3" d="M9,49.6l-5.6-2c-1-0.4-1.1-0.9-1.1-1.7c0-0.4,0-1,0.3-1.3c0.2-0.2,0.6-0.4,1.1-0.4h7.9v-2.1H3.8
			c-1.4,0-2.2,0.5-2.6,0.8c-1,0.9-1.2,2-1.2,2.9c0,0.7,0.1,1.8,0.8,2.7c0.4,0.5,1.1,0.9,2,1.2l5.7,2c1.3,0.5,1.4,1.1,1.4,1.8
			c0,1.9-0.8,1.9-1.1,1.9H0.2v2.1h8.5c0.9,0,2-0.1,2.7-1.2c0.7-1,0.8-2.3,0.8-2.9c0-1.1-0.4-2.1-1.1-2.7C10.6,50.2,9.8,49.9,9,49.6z
			"/>
		<path class="st3" d="M25.5,45.6H15.5c-0.8,0-1.3,0.3-1.7,0.9c-0.3,0.5-0.3,1-0.3,1.5v9.6h2.2l0-9.8c0,0,0-0.1,0-0.1
			c0,0,0.1,0,0.1,0h4.5v9.9h2.2v-9.9h3.1c0.4,0,0.9,0,1.2,0.3c0.2,0.2,0.3,0.6,0.3,1.2v8.4h2.2v-8.3c0-1.3-0.3-2.3-1-2.9
			C27.5,45.9,26.7,45.6,25.5,45.6z"/>
		<path class="st3" d="M37.1,45.6h-5.9v2.1h5.8c0.3,0,0.6,0.2,0.7,0.3c0.2,0.2,0.3,0.7,0.3,0.9v1.1h-4.1c-1,0-1.8,0.2-2.4,0.7
			c-1,0.8-1.1,2-1.1,3c0,1.6,0.4,2.7,1.2,3.3c0.8,0.6,1.7,0.6,2.3,0.6h4.2c0.4,0,1.1,0,1.6-0.5c0.5-0.5,0.5-1.3,0.5-1.5v-6.5
			c0-0.7-0.1-1.8-0.8-2.5C38.9,45.9,38,45.6,37.1,45.6z M32.7,53.7c0-0.3,0-1,0.2-1.3c0,0,0.2-0.3,0.7-0.3H38v3.4h-4.4
			c-0.4,0-0.6-0.2-0.6-0.3C32.7,54.9,32.7,54.2,32.7,53.7z"/>
		<path class="st3" d="M42.8,46.6c-0.9,0.9-1.1,2-1.1,3.2v7.7h2.2v-7.4c0-0.7,0.1-1.5,0.4-1.9c0.3-0.4,0.9-0.6,1.7-0.6h1.2v-2.1
			h-1.3C44.1,45.6,43.3,46.2,42.8,46.6z"/>
		<path class="st3" d="M52.1,55.3c-0.2-0.1-0.4-0.5-0.4-1.5v-6.2h3v-2.1h-3v-3.5h-2.2v3.5h-1.5v2.1h1.5v5.7c0,1.4,0.1,2.6,0.9,3.4
			c0.5,0.5,1.3,0.8,2.3,0.8h2.1v-2.1h-1.1C52.8,55.5,52.3,55.4,52.1,55.3z"/>
		<path class="st3" d="M69,55.1c0,0.2,0,0.3-0.1,0.3c0,0-0.2,0-0.2,0h-5.3c-1.9,0-2.6-1.3-2.8-1.7c-0.2-0.5-0.6-1.6-0.6-3.9
			c0-1.8,0.2-3,0.6-3.8c0.6-1.2,1.8-1.8,3.2-1.8h7v-2.1h-6.7c-0.9,0-2.3,0.1-3.6,0.9c-2.5,1.5-2.8,4.2-2.8,6.9
			c0,2.5,0.3,4.9,2.2,6.5c0.9,0.8,2.2,1.2,3.5,1.2H69c0.3,0,1.2-0.1,1.7-0.5c0.6-0.5,0.6-1.3,0.6-1.6v-5.5H69V55.1z"/>
		<path class="st3" d="M79,45.6h-5.9v2.1h5.8c0.3,0,0.6,0.2,0.7,0.3c0.2,0.2,0.3,0.7,0.3,0.9v1.1h-4.1c-1,0-1.8,0.2-2.4,0.7
			c-1,0.8-1.1,2-1.1,3c0,1.6,0.4,2.7,1.2,3.3c0.8,0.6,1.7,0.6,2.3,0.6h4.2c0.4,0,1.1,0,1.6-0.5c0.5-0.5,0.5-1.3,0.5-1.5v-6.5
			c0-0.4,0-1.7-0.8-2.5C80.8,45.9,79.9,45.6,79,45.6z M74.6,53.7c0-0.3,0-1,0.2-1.3c0,0,0.2-0.3,0.7-0.3h4.4v3.4h-4.4
			c-0.4,0-0.6-0.2-0.6-0.3C74.6,54.9,74.6,54.2,74.6,53.7z"/>
		<path class="st3" d="M90.9,45.6h-2.7c-1.2,0-3,0.2-4.2,1.9c-0.8,1.2-0.9,2.5-0.9,3.8c0,2.1,0.3,3.1,0.5,3.7c0.6,1.7,2,2.5,4,2.5
			H91c0.4,0,1.2,0,1.6-0.6c0.3-0.4,0.4-1.1,0.4-1.5V42.1h-2.2V45.6z M85.4,51.4c0-1,0-2.1,0.5-2.8c0.4-0.6,1.1-1,2.1-1h3v7.4
			c0,0.2,0,0.3,0,0.3c0,0-0.1,0-0.2,0h-2.7c-1.2,0-1.9-0.4-2.3-1.3C85.5,53.8,85.4,53.1,85.4,51.4z"/>
		<path class="st3" d="M103.8,46.1c-0.6-0.4-1.3-0.5-2-0.5h-2.7c-1.4,0-2.6,0.2-3.6,1.3c-1.2,1.2-1.3,2.9-1.3,4.4
			c0,1.5,0.1,3.3,0.9,4.6c1.1,1.7,2.8,1.7,3.8,1.7h3.5c-0.1,0.3-0.3,0.6-0.5,0.9c-0.3,0.3-1.1,0.5-2,0.5h-4.9V61h4.9
			c1,0,2.8-0.2,3.9-1.4c0.9-1.1,1-2.6,1-3.9V48C104.6,47.2,104.3,46.5,103.8,46.1z M97,55c-0.4-0.5-0.7-1.7-0.7-3.4
			c0-1.2,0.1-2.5,0.8-3.2c0.5-0.5,1.1-0.6,1.6-0.6h3.4c0.2,0,0.3,0,0.3,0.1c0,0,0.1,0,0.1,0.3v7.5h-4.2C97.7,55.5,97.3,55.3,97,55z"
			/>
		<path class="st3" d="M115.5,52c0.4-0.4,0.6-1,0.6-1.8c0-1.7-0.7-3.2-2-3.9c-1-0.6-2.2-0.7-3-0.7c-1.1,0-2.6,0.1-3.8,1.1
			c-1.5,1.3-1.7,3.2-1.7,4.9c0,1.8,0.1,3.2,1,4.4c0.8,1,1.9,1.5,3.3,1.5h5.9v-2.1H110c-1.1,0-1.7-0.8-1.9-1.5
			c-0.1-0.3-0.2-0.9-0.2-1.5h6C114.3,52.5,115,52.5,115.5,52z M108.4,48.7c0.6-1,1.5-1,2.5-1c1,0,1.8,0.1,2.4,0.7
			c0.6,0.7,0.6,1.6,0.6,1.9l0,0.1h-5.9C108,49.7,108.1,49.2,108.4,48.7z"/>
		<path class="st3" d="M120.4,55.3c-0.2-0.1-0.4-0.5-0.4-1.5v-6.2h3v-2.1h-3v-3.5h-2.2v3.5h-1.5v2.1h1.5v5.7c0,1.4,0.1,2.6,0.9,3.4
			c0.5,0.5,1.3,0.8,2.3,0.8h2.1v-2.1H122C121.1,55.5,120.6,55.4,120.4,55.3z"/>
		<path class="st3" d="M133.1,51.9c-0.7-0.6-1.8-0.8-3.1-1.1l-2-0.5c-0.4-0.1-1.4-0.4-1.6-0.6c-0.3-0.2-0.3-0.6-0.3-1
			c0-0.5,0-0.7,0.2-0.9c0.3-0.2,0.7-0.2,0.8-0.2h6.2v-2.1h-5.8c-0.9,0-2.2,0-3.1,1.2c-0.4,0.5-0.7,1.3-0.7,2.1
			c0,0.9,0.2,1.6,0.7,2.2c0.7,0.9,2.2,1.3,2.8,1.4l2.2,0.5c1,0.2,1.7,0.4,2,0.7c0.2,0.2,0.3,0.4,0.3,0.7c0,0.5-0.1,0.8-0.2,0.9
			c-0.1,0.1-0.3,0.3-0.8,0.3h-6.8v2.1h6.8c0.6,0,1.4-0.1,2-0.5c0.5-0.4,1.2-1.1,1.2-2.8C134.1,53.5,134,52.7,133.1,51.9z"/>
	</g>
</g>
<path class="st4" d="M11.7,88.2v-1l10.5-3.2c2.2-0.6,4.3-1.7,4.7-4.2c0.1-0.8,0.1-1.7,0-2.5c-0.5-2.9-3.4-3.9-6-3.9l-8.3,0
	c-1.2,0-2.5,0.3-3.4,1.2c-0.7,0.7-1,1.7-1,2.7l0,11.2c0,0.9,0.2,2,0.5,2.8c0.4,1,1.3,1.9,2.4,2.3c0.9,0.4,1.9,0.5,2.8,0.5h12.8
	l0.6-3.5l-13.6,0C12.2,90.7,11.7,89.6,11.7,88.2z M11.7,77.3L11.7,77.3c0.1-0.3,0.6-0.4,0.9-0.4l8.2,0c0.9,0,2.2,0.3,2.4,1.3
	c0.1,0.5,0.1,0.8,0,1.3c-0.1,0.9-1,1.3-1.8,1.5l-9.7,2.9L11.7,77.3z"/>
<polygon class="st4" points="79.9,73.9 79.9,81.6 70.2,81.6 70.2,73.9 66.4,73.9 66.4,93.7 70.2,93.7 70.2,85.1 79.9,85.1 
	79.9,93.7 83.7,93.7 83.7,73.9 "/>
<path class="st4" d="M61.9,84.6c-0.8-0.8-1.9-1.2-3-1.6l-6.8-2.4c-0.9-0.3-0.9-0.6-0.9-1.6c0-0.4,0-1,0.2-1.2
	c0.1-0.1,0.5-0.3,0.9-0.3h10.2v-3.7h-10c-1.8,0-2.9,0.6-3.5,1.2c-1.4,1.2-1.6,2.8-1.6,3.9c0,1,0.1,2.4,1.2,3.6
	c0.6,0.7,1.5,1.3,2.7,1.7l6.9,2.4c1.4,0.5,1.4,1,1.4,1.7c0,1.8-0.5,1.8-0.8,1.8h-11v3.7h10.9c1.1,0,2.7-0.2,3.8-1.6
	c1-1.3,1.1-3.1,1.1-3.8C63.4,86.8,62.9,85.5,61.9,84.6z"/>
<path class="st4" d="M103.7,76c-2.2-2.2-5.6-2.2-7.3-2.2s-5,0-7.3,2.2c-2.4,2.4-2.4,6.1-2.4,7.9c0,1.8,0,5.5,2.4,7.9
	c2.2,2.2,5.4,2.2,7.3,2.2c1.9,0,5,0,7.3-2.2c2.4-2.4,2.4-6.1,2.4-7.9C106.1,82.1,106.1,78.4,103.7,76z M96.4,77.4
	c1.4,0,3.4,0,4.6,1.3c1.2,1.3,1.2,3.5,1.2,5.2c0,1.7,0,3.9-1.2,5.2c-1.2,1.3-3.1,1.3-4.6,1.3c-1.5,0-3.5,0-4.6-1.3
	c-1.2-1.3-1.2-3.5-1.2-5.2c0-1.7,0-3.9,1.2-5.2C93,77.4,95,77.4,96.4,77.4z"/>
<path class="st4" d="M121.1,73.9l-7.8,0c-1.2,0-2.1,0.3-2.8,1c-1.1,1-1.1,2.2-1.1,3v15.9l3.8,0l0-5.9l9.3-4.1c2.6-1.3,3.6-2.6,3.5-5
	C125.9,76.6,124.3,74.2,121.1,73.9z M120.7,80.7l-7.7,3.4l0-6.6l7.1,0c1.6,0,1.9,0.6,1.9,1.2C122.1,79.8,121.8,80.2,120.7,80.7z"/>
</svg>
